%YAML 1.1
%TAG !u! tag:unity3d.com,2011:
--- !u!1 &8441239572497274514
GameObject:
  m_ObjectHideFlags: 0
  m_CorrespondingSourceObject: {fileID: 0}
  m_PrefabInstance: {fileID: 0}
  m_PrefabAsset: {fileID: 0}
  serializedVersion: 6
  m_Component:
  - component: {fileID: 6548020826348509309}
  - component: {fileID: 8634389783293367468}
  m_Layer: 0
  m_Name: Board
  m_TagString: Untagged
  m_Icon: {fileID: 0}
  m_NavMeshLayer: 0
  m_StaticEditorFlags: 0
  m_IsActive: 1
--- !u!4 &6548020826348509309
Transform:
  m_ObjectHideFlags: 0
  m_CorrespondingSourceObject: {fileID: 0}
  m_PrefabInstance: {fileID: 0}
  m_PrefabAsset: {fileID: 0}
  m_GameObject: {fileID: 8441239572497274514}
  m_LocalRotation: {x: 0, y: 0, z: 0, w: 1}
  m_LocalPosition: {x: 0, y: 0, z: 0}
  m_LocalScale: {x: 1, y: 1, z: 1}
  m_Children: []
  m_Father: {fileID: 0}
  m_RootOrder: 0
  m_LocalEulerAnglesHint: {x: 0, y: 0, z: 0}
--- !u!114 &8634389783293367468
MonoBehaviour:
  m_ObjectHideFlags: 0
  m_CorrespondingSourceObject: {fileID: 0}
  m_PrefabInstance: {fileID: 0}
  m_PrefabAsset: {fileID: 0}
  m_GameObject: {fileID: 8441239572497274514}
  m_Enabled: 1
  m_EditorHideFlags: 0
  m_Script: {fileID: 11500000, guid: 69d34ff17a5a8dd48946b32aae5f5b7e, type: 3}
  m_Name: 
  m_EditorClassIdentifier: 
  size: 8
  offsetY: 0.1
  tileObject: {fileID: 130148713329712637, guid: 794030df26193d5468903ecd9f526f4f,
    type: 3}
  whiteMaterial: {fileID: 2100000, guid: 7e181fd161a9d4c41a7d09c87806d01d, type: 2}
  blackMaterial: {fileID: 2100000, guid: 46be5f15e363aac4381cc9eb6efc673f, type: 2}
  mountainObject: {fileID: 1084129460719131558, guid: 495345a4143a5b84abf7800175bd7fc4,
    type: 3}
  forestObject: {fileID: 2716789580228034463, guid: 6b73736e8b3cb8d4ba0561544d67d13c,
    type: 3}
  dungeonObject: {fileID: 6616254296105675429, guid: c95791586f9f6e74aaff29d597472396,
    type: 3}
