%YAML 1.1
%TAG !u! tag:unity3d.com,2011:
--- !u!1 &4865979669315288495
GameObject:
  m_ObjectHideFlags: 0
  m_CorrespondingSourceObject: {fileID: 0}
  m_PrefabInstance: {fileID: 0}
  m_PrefabAsset: {fileID: 0}
  serializedVersion: 6
  m_Component:
  - component: {fileID: 4865979669315288489}
  - component: {fileID: 4865979669315288494}
  - component: {fileID: 4865979669315288488}
  m_Layer: 0
  m_Name: WhiteQueen
  m_TagString: Untagged
  m_Icon: {fileID: 0}
  m_NavMeshLayer: 0
  m_StaticEditorFlags: 0
  m_IsActive: 1
--- !u!4 &4865979669315288489
Transform:
  m_ObjectHideFlags: 0
  m_CorrespondingSourceObject: {fileID: 0}
  m_PrefabInstance: {fileID: 0}
  m_PrefabAsset: {fileID: 0}
  m_GameObject: {fileID: 4865979669315288495}
  m_LocalRotation: {x: 0, y: 0, z: 0, w: 1}
  m_LocalPosition: {x: 0, y: 0, z: 0}
  m_LocalScale: {x: 1, y: 1, z: 1}
  m_Children: []
  m_Father: {fileID: 0}
  m_RootOrder: 0
  m_LocalEulerAnglesHint: {x: 0, y: 0, z: 0}
--- !u!114 &4865979669315288494
MonoBehaviour:
  m_ObjectHideFlags: 0
  m_CorrespondingSourceObject: {fileID: 0}
  m_PrefabInstance: {fileID: 0}
  m_PrefabAsset: {fileID: 0}
  m_GameObject: {fileID: 4865979669315288495}
  m_Enabled: 1
  m_EditorHideFlags: 0
  m_Script: {fileID: 11500000, guid: 28b8ee60276a6964d971f495773df45d, type: 3}
  m_Name: 
  m_EditorClassIdentifier: 
  type: 4
  color: 0
  moves:
  - {fileID: 4865979669315288488}
  modelToInstantiate: {fileID: 1945632463053948, guid: be3573ba2ba53ea4f8979e64874c493d,
    type: 3}
  model: {fileID: 0}
--- !u!114 &4865979669315288488
MonoBehaviour:
  m_ObjectHideFlags: 0
  m_CorrespondingSourceObject: {fileID: 0}
  m_PrefabInstance: {fileID: 0}
  m_PrefabAsset: {fileID: 0}
  m_GameObject: {fileID: 4865979669315288495}
  m_Enabled: 1
  m_EditorHideFlags: 0
  m_Script: {fileID: 11500000, guid: 8b5305063493b8b4d80250191ff52923, type: 3}
  m_Name: 
  m_EditorClassIdentifier: 
  canCapture: 1
  mustCapture: 0
  firstMoveOnly: 0
  piece: {fileID: 4865979669315288494}
  distance: 8
  directions:
  - {x: 1, y: 0}
  - {x: 1, y: 1}
  circularMove: 1
  data:
    canCapture: 0
    mustCapture: 0
    firstMoveOnly: 0
    distance: 0
    directions: []
    circularMove: 0
