%YAML 1.1
%TAG !u! tag:unity3d.com,2011:
--- !u!1 &135610216869100377
GameObject:
  m_ObjectHideFlags: 0
  m_CorrespondingSourceObject: {fileID: 0}
  m_PrefabInstance: {fileID: 0}
  m_PrefabAsset: {fileID: 0}
  serializedVersion: 6
  m_Component:
  - component: {fileID: 135610216869100383}
  - component: {fileID: 135610216869100376}
  - component: {fileID: 135610216869100382}
  m_Layer: 0
  m_Name: WhiteKnight
  m_TagString: Untagged
  m_Icon: {fileID: 0}
  m_NavMeshLayer: 0
  m_StaticEditorFlags: 0
  m_IsActive: 1
--- !u!4 &135610216869100383
Transform:
  m_ObjectHideFlags: 0
  m_CorrespondingSourceObject: {fileID: 0}
  m_PrefabInstance: {fileID: 0}
  m_PrefabAsset: {fileID: 0}
  m_GameObject: {fileID: 135610216869100377}
  m_LocalRotation: {x: 0, y: 0, z: 0, w: 1}
  m_LocalPosition: {x: 0, y: 0, z: 0}
  m_LocalScale: {x: 1, y: 1, z: 1}
  m_Children: []
  m_Father: {fileID: 0}
  m_RootOrder: 0
  m_LocalEulerAnglesHint: {x: 0, y: 0, z: 0}
--- !u!114 &135610216869100376
MonoBehaviour:
  m_ObjectHideFlags: 0
  m_CorrespondingSourceObject: {fileID: 0}
  m_PrefabInstance: {fileID: 0}
  m_PrefabAsset: {fileID: 0}
  m_GameObject: {fileID: 135610216869100377}
  m_Enabled: 1
  m_EditorHideFlags: 0
  m_Script: {fileID: 11500000, guid: 28b8ee60276a6964d971f495773df45d, type: 3}
  m_Name: 
  m_EditorClassIdentifier: 
  type: 2
  color: 0
  moves:
  - {fileID: 135610216869100382}
  modelToInstantiate: {fileID: 1992623236052302, guid: 85ad2c556fdbd5747ac7f5f67f10e59b,
    type: 3}
  model: {fileID: 0}
--- !u!114 &135610216869100382
MonoBehaviour:
  m_ObjectHideFlags: 0
  m_CorrespondingSourceObject: {fileID: 0}
  m_PrefabInstance: {fileID: 0}
  m_PrefabAsset: {fileID: 0}
  m_GameObject: {fileID: 135610216869100377}
  m_Enabled: 1
  m_EditorHideFlags: 0
  m_Script: {fileID: 11500000, guid: 8b5305063493b8b4d80250191ff52923, type: 3}
  m_Name: 
  m_EditorClassIdentifier: 
  canCapture: 1
  mustCapture: 0
  firstMoveOnly: 0
  piece: {fileID: 135610216869100376}
  distance: 1
  directions:
  - {x: 2, y: 1}
  - {x: 2, y: -1}
  circularMove: 1
